#define cursor_zoom_mask_width 20
#define cursor_zoom_mask_height 20
static unsigned char cursor_zoom_mask_bits[] = {
    0x00, 0x00, 0x00, 0x00, 0x00, 0x00, 0x00, 0x00, 0x00, 0x80, 0x07, 0x00,
    0xc0, 0x0f, 0x00, 0xe0, 0x1f, 0x00, 0x70, 0x38, 0x00, 0x38, 0x70, 0x00,
    0x38, 0x70, 0x00, 0x38, 0x70, 0x00, 0x38, 0x70, 0x00, 0x70, 0x38, 0x00,
    0xe0, 0x7f, 0x00, 0xc0, 0xff, 0x00, 0x80, 0xf7, 0x01, 0x00, 0xe0, 0x03,
    0x00, 0xc0, 0x07, 0x00, 0x80, 0x0f, 0x00, 0x00, 0x07, 0x00, 0x00, 0x02,
};
